<?xml version="1.0" encoding="UTF-8" standalone="no"?>
<!-- Created with Inkscape (http://www.inkscape.org/) -->

<svg
   xmlns:dc="http://purl.org/dc/elements/1.1/"
   xmlns:cc="http://creativecommons.org/ns#"
   xmlns:rdf="http://www.w3.org/1999/02/22-rdf-syntax-ns#"
   xmlns:svg="http://www.w3.org/2000/svg"
   xmlns="http://www.w3.org/2000/svg"
   xmlns:sodipodi="http://sodipodi.sourceforge.net/DTD/sodipodi-0.dtd"
   xmlns:inkscape="http://www.inkscape.org/namespaces/inkscape"
   width="210mm"
   height="297mm"
   viewBox="0 0 210 297"
   version="1.1"
   id="svg8"
   sodipodi:docname="gravity.svg"
   inkscape:version="0.92.2 2405546, 2018-03-11">
  <defs
     id="defs2">
    <marker
       inkscape:stockid="Arrow1Mend"
       orient="auto"
       refY="0.0"
       refX="0.0"
       id="Arrow1Mend"
       style="overflow:visible;"
       inkscape:isstock="true">
      <path
         id="path852"
         d="M 0.0,0.0 L 5.0,-5.0 L -12.5,0.0 L 5.0,5.0 L 0.0,0.0 z "
         style="fill-rule:evenodd;stroke:#000000;stroke-width:1pt;stroke-opacity:1;fill:#000000;fill-opacity:1"
         transform="scale(0.4) rotate(180) translate(10,0)" />
    </marker>
    <marker
       inkscape:stockid="Arrow1Mstart"
       orient="auto"
       refY="0.0"
       refX="0.0"
       id="Arrow1Mstart"
       style="overflow:visible"
       inkscape:isstock="true">
      <path
         id="path849"
         d="M 0.0,0.0 L 5.0,-5.0 L -12.5,0.0 L 5.0,5.0 L 0.0,0.0 z "
         style="fill-rule:evenodd;stroke:#000000;stroke-width:1pt;stroke-opacity:1;fill:#000000;fill-opacity:1"
         transform="scale(0.4) translate(10,0)" />
    </marker>
    <marker
       inkscape:stockid="Arrow1Mend"
       orient="auto"
       refY="0"
       refX="0"
       id="Arrow1Mend-3"
       style="overflow:visible"
       inkscape:isstock="true">
      <path
         inkscape:connector-curvature="0"
         id="path852-6"
         d="M 0,0 5,-5 -12.5,0 5,5 Z"
         style="fill:#000000;fill-opacity:1;fill-rule:evenodd;stroke:#000000;stroke-width:1.00000003pt;stroke-opacity:1"
         transform="matrix(-0.4,0,0,-0.4,-4,0)" />
    </marker>
  </defs>
  <sodipodi:namedview
     id="base"
     pagecolor="#ffffff"
     bordercolor="#666666"
     borderopacity="1.0"
     inkscape:pageopacity="0.0"
     inkscape:pageshadow="2"
     inkscape:zoom="0.49497475"
     inkscape:cx="-17.619449"
     inkscape:cy="680.77749"
     inkscape:document-units="mm"
     inkscape:current-layer="layer1"
     showgrid="false"
     inkscape:window-width="1280"
     inkscape:window-height="749"
     inkscape:window-x="0"
     inkscape:window-y="0"
     inkscape:window-maximized="1" />
  <metadata
     id="metadata5">
    <rdf:RDF>
      <cc:Work
         rdf:about="">
        <dc:format>image/svg+xml</dc:format>
        <dc:type
           rdf:resource="http://purl.org/dc/dcmitype/StillImage" />
      </cc:Work>
    </rdf:RDF>
  </metadata>
  <g
     inkscape:label="Layer 1"
     inkscape:groupmode="layer"
     id="layer1">
    <path
       style="fill:#f5f200;fill-opacity:1;stroke:#5f021f;stroke-width:0;stroke-linecap:butt;stroke-miterlimit:4;stroke-dasharray:0,0;stroke-dashoffset:0;stroke-opacity:1"
       id="path825"
       d="m 89.696826,51.757733 c -1.490184,-0.688711 -3.15936,-0.648401 -4.762548,-0.620416 -2.603431,0.156117 -5.075719,1.018672 -7.517053,1.869797 -2.966696,1.175385 -5.890302,2.44458 -8.737613,3.885612 -0.474427,0.27228 -1.900224,1.084699 -1.423281,0.816846 0.838684,-0.471009 1.653014,-0.986642 2.508536,-1.426332 0.47272,-0.242951 -0.912977,0.544992 -1.358276,0.835163 -1.26551,0.824648 -2.420445,1.766067 -3.573592,2.737344 -2.35477,2.079895 -4.300029,4.547741 -6.218343,7.020039 -1.858182,2.49891 -3.467227,5.160177 -4.9046,7.918934 -1.319125,2.690445 -2.243381,5.561738 -3.028741,8.447455 -0.855255,2.990729 -1.258877,6.067973 -1.480595,9.161677 -0.304789,2.998446 0.211482,5.934811 0.986219,8.818068 0.924658,2.959 2.42398,5.68245 3.882165,8.4019 1.501375,2.81928 3.403557,5.37028 5.463836,7.79842 2.047052,2.39165 4.360881,4.53276 6.713514,6.61732 2.325915,2.09937 4.873945,3.92711 7.568392,5.51887 2.466216,1.51038 5.052084,2.79839 7.65987,4.04114 2.552155,1.22942 5.277557,2.01454 8.008544,2.72877 3.039575,0.84524 6.162598,1.35909 9.288533,1.75922 2.899407,0.30096 5.820797,0.46366 8.734597,0.34659 2.71741,-0.10603 5.4148,-0.42115 8.07674,-0.97225 2.64185,-0.4534 5.17589,-1.31258 7.68494,-2.22983 0.83097,-0.37308 1.6705,-0.73347 2.4759,-1.16108 0.40337,-0.21417 1.58569,-0.90704 1.18829,-0.68199 -0.91527,0.51833 -1.80615,1.08153 -2.74194,1.56183 -0.40368,0.20719 0.7675,-0.48461 1.14207,-0.74069 0.38015,-0.25989 0.74763,-0.53784 1.12144,-0.80676 2.15241,-1.4958 4.11002,-3.22518 6.00399,-5.02879 1.90305,-1.84705 3.62833,-3.8537 5.29161,-5.9151 1.81037,-2.18475 3.34004,-4.57216 4.75509,-7.02518 1.1793,-1.98357 1.98377,-4.14998 2.6966,-6.33541 0.74993,-2.04413 1.05257,-4.20148 1.37879,-6.34265 0.32232,-2.43364 0.49666,-4.890422 0.4271,-7.344882 -0.13211,-2.634334 -0.56753,-5.248082 -1.04353,-7.839556 -0.36392,-2.648384 -1.13041,-5.207638 -1.91817,-7.753705 -0.67483,-2.301618 -1.81728,-4.410307 -3.02946,-6.465358 -1.25405,-1.994122 -2.72013,-3.847827 -4.32982,-5.565132 -1.9292,-1.937819 -3.91014,-3.823327 -5.86622,-5.733941 -1.9243,-1.874864 -4.04741,-3.514643 -6.16702,-5.156941 -1.98629,-1.424527 -3.99904,-2.840382 -6.1322,-4.037968 -2.03473,-1.074557 -4.12564,-2.033452 -6.2385,-2.941989 -1.91887,-0.721868 -3.91729,-1.198444 -5.94603,-1.474433 -2.13859,-0.319223 -4.277,-0.167939 -6.418152,-0.0021 -2.043378,0.08272 -4.030158,0.592066 -6.038464,0.929196 -2.099741,0.456665 -4.179364,1.014312 -6.249527,1.591225 -1.990334,0.539885 -3.993901,1.048552 -5.965185,1.656125 -1.224235,0.372012 -2.42158,0.816345 -3.619127,1.265018 0,0 3.548044,-2.779514 3.548044,-2.779514 v 0 c 1.235686,-0.473038 2.469272,-0.946835 3.740634,-1.317882 1.976972,-0.571796 3.963787,-1.112218 5.954205,-1.634966 2.083924,-0.566063 4.168714,-1.148077 6.288447,-1.564487 2.009008,-0.358581 4.007905,-0.815673 6.056225,-0.887139 2.16286,-0.160023 4.3257,-0.25149 6.48096,0.08068 2.05407,0.307147 4.0811,0.806358 6.01342,1.578033 2.11581,0.925574 4.20805,1.909107 6.24503,2.998441 2.13072,1.240087 4.17766,2.633893 6.1624,4.094819 2.12956,1.649614 4.2221,3.346905 6.16074,5.221568 1.97024,1.911424 3.97188,3.790717 5.9155,5.72925 1.62773,1.748216 3.12174,3.621077 4.38946,5.648931 1.21113,2.095519 2.39501,4.224221 3.07166,6.563164 0.78301,2.56776 1.53668,5.150914 1.9142,7.815704 0.48568,2.607525 0.95701,5.2323 1.10889,7.88356 0.0859,2.476992 -0.0905,4.958638 -0.39179,7.417589 -0.29865,2.1584 -0.56981,4.339 -1.31719,6.39867 -0.7072,2.22084 -1.52811,4.42192 -2.70132,6.4438 -1.41637,2.47331 -2.94487,4.88271 -4.74549,7.09855 -1.65618,2.066 -3.3443,4.10155 -5.23763,5.95889 -1.90892,1.80722 -3.83098,3.59816 -6.00539,5.0924 -3.40316,2.53306 -7.13004,4.6558 -11.02925,6.3231 -2.52002,0.91025 -5.07571,1.72042 -7.72363,2.17304 -2.67803,0.52222 -5.38977,0.82092 -8.11808,0.90877 -2.92355,0.0737 -5.851983,-0.0891 -8.757174,-0.42282 -3.136881,-0.43432 -6.271098,-0.95223 -9.326083,-1.80104 -2.759888,-0.71932 -5.506437,-1.52914 -8.077007,-2.78817 -2.609017,-1.26198 -5.191559,-2.57389 -7.667151,-4.08605 -2.696737,-1.63157 -5.247857,-3.49171 -7.592206,-5.60325 -2.372704,-2.09491 -4.701831,-4.2535 -6.755442,-6.66849 -2.070886,-2.45846 -3.986522,-5.04041 -5.508286,-7.88206 -1.47814,-2.74795 -2.998417,-5.49732 -3.948946,-8.48409 -0.788384,-2.92652 -1.350359,-5.903646 -1.057029,-8.951233 0.207931,-3.123107 0.62307,-6.224907 1.46313,-9.248195 0.741474,-2.916426 1.675768,-5.804622 2.965995,-8.527775 1.424596,-2.789513 3.054136,-5.462037 4.889741,-8.001849 1.907381,-2.490716 3.849415,-4.96878 6.165027,-7.100189 3.508338,-3.024391 7.468642,-5.353222 11.584913,-7.489584 2.873843,-1.427853 5.815941,-2.708675 8.809276,-3.866073 2.479196,-0.851572 4.999534,-1.685285 7.643603,-1.781419 1.696273,-0.01455 3.439205,0.0029 5.015076,0.717019 0,0 -3.976261,2.616237 -3.976261,2.616237 z"
       inkscape:connector-curvature="0" />
    <path
       style="fill:#f53500;fill-opacity:1;stroke:#5f021f;stroke-width:0;stroke-linecap:butt;stroke-miterlimit:4;stroke-dasharray:0,0;stroke-dashoffset:0;stroke-opacity:1"
       id="path831"
       d="m 38.916654,35.404036 c -1.527778,0.130032 -2.948831,0.63695 -4.337642,1.260742 -0.292547,0.143031 -0.586274,0.283678 -0.877644,0.429098 -0.305396,0.152419 -0.611762,0.303147 -0.912588,0.464394 -0.298347,0.159917 -1.17984,0.664308 -0.884518,0.498878 6.295144,-3.526378 2.347085,-1.280653 1.022742,-0.418995 -2.674673,1.789176 -4.83566,4.191924 -7.000883,6.542067 -2.145738,2.297514 -3.958514,4.83285 -5.285055,7.681171 -1.242857,2.919103 -1.998992,6.004581 -2.548186,9.119735 -0.63413,3.008842 -0.805244,6.076678 -1.06519,9.131184 -0.268173,2.815844 -0.414935,5.639376 -0.665234,8.456633 -0.184102,3.288596 -0.517562,6.562 -0.891032,9.833462 -0.388909,3.321709 -0.515353,6.664285 -0.588901,10.005242 -0.184694,3.332823 0.131667,6.643183 0.556778,9.943763 0.466434,3.70951 1.556967,7.27288 2.71463,10.81209 1.144593,3.85672 2.729912,7.55734 4.359897,11.22824 1.810425,4.09111 3.965669,8.01356 6.224644,11.87057 2.399639,3.94385 5.108184,7.66861 8.007935,11.25473 2.504086,2.99317 5.375026,5.64112 8.369533,8.13164 3.015953,2.60598 6.224844,4.96258 9.532469,7.18053 3.225244,2.14712 6.60006,4.05822 9.977249,5.95316 3.268586,1.7622 6.643971,3.29549 10.091918,4.6681 3.376178,1.27772 6.801953,2.44281 10.297972,3.34569 3.732517,0.93565 7.538794,1.54806 11.347304,2.07863 3.840688,0.68954 7.737298,0.87053 11.617828,1.18587 3.35792,0.39486 6.72172,0.3821 10.09302,0.26782 3.45594,-0.0572 6.88314,-0.46723 10.28014,-1.08024 4.01488,-0.70649 7.91441,-1.87906 11.70195,-3.37012 3.72595,-1.38837 7.28985,-3.13064 10.79533,-4.99394 0.52545,-0.29115 2.09666,-1.17368 1.57635,-0.87345 -0.77783,0.44884 -1.5205,0.97276 -2.34898,1.31929 -0.51812,0.21671 0.94259,-0.61098 1.40779,-0.92561 1.36851,-0.92556 2.68147,-1.92365 4.00305,-2.91395 2.46762,-1.73494 4.45243,-4.01255 6.47779,-6.22057 1.73554,-2.04297 3.52669,-4.03798 5.27321,-6.07119 1.68079,-1.89071 3.24678,-3.87769 4.87381,-5.81332 1.57679,-1.8441 3.12795,-3.70824 4.53221,-5.68801 1.4028,-2.24989 2.57266,-4.64323 3.7172,-7.03314 1.36145,-2.76854 2.26197,-5.71658 3.17626,-8.65271 1.03274,-3.26494 2.01555,-6.54311 2.88165,-9.85611 0.80729,-3.08272 1.33283,-6.22166 1.78585,-9.37247 0.41721,-3.27749 0.77551,-6.55789 0.966,-9.85672 0.28583,-3.05798 0.5014,-6.119425 0.61414,-9.188581 0.1156,-3.586279 0.11254,-7.174857 0.12197,-10.762557 0.0465,-3.603593 -0.0759,-7.208318 -0.39534,-10.797875 -0.27897,-3.241768 -0.8791,-6.448822 -1.52976,-9.633887 -0.68707,-3.256227 -1.67311,-6.435169 -2.78527,-9.56809 -0.97249,-2.76022 -2.03016,-5.481703 -3.35031,-8.094374 -1.12876,-2.458762 -2.68108,-4.640514 -4.31517,-6.778807 -2.03359,-2.579016 -4.57141,-4.665287 -7.04892,-6.793561 -2.22134,-1.921399 -4.61571,-3.617867 -6.96339,-5.376651 -2.23062,-1.637047 -4.42177,-3.330853 -6.76189,-4.810156 -2.68337,-1.652698 -5.50022,-3.082711 -8.32563,-4.475094 -2.69634,-1.224826 -5.29116,-2.661014 -8.00582,-3.844714 -2.39214,-1.036336 -4.88056,-1.801069 -7.38571,-2.505894 -2.46971,-0.72305 -5.01294,-1.038791 -7.54805,-1.418415 -2.57681,-0.403164 -5.18245,-0.530967 -7.78583,-0.60595 -2.5915,-0.142024 -5.17456,0.1194 -7.75774,0.287151 -2.62939,0.189181 -5.26767,0.36621 -7.88737,0.66843 -2.516375,0.267266 -5.036208,0.472192 -7.534092,0.885833 -2.523566,0.325494 -4.987501,0.952162 -7.456781,1.544424 -2.416709,0.652218 -4.874556,1.13255 -7.277856,1.835355 -2.521667,0.6256 -5.000406,1.404086 -7.494889,2.127415 -2.345632,0.735355 -4.700845,1.446168 -7.082433,2.05656 -2.174746,0.579502 -4.303895,1.309879 -6.454585,1.968404 -2.025446,0.609327 -4.039859,1.250824 -6.024255,1.984613 -1.856118,0.673505 -3.670356,1.436477 -5.45883,2.273563 -2.036766,0.957146 -4.025665,2.012476 -6.066923,2.959621 -0.32612,0.148037 -0.654732,0.290703 -0.978365,0.444108 -0.306983,0.14551 -0.612582,0.294283 -0.91321,0.452509 -3.411579,1.795579 4.609198,-2.883622 1.845832,-1.03574 -0.189572,0.126767 -0.372113,0.263739 -0.558171,0.39561 -1.224192,0.9403 -2.352648,1.990701 -3.43917,3.084806 -1.272083,1.274072 -2.596997,2.496778 -3.919358,3.719232 -1.135113,1.064808 -2.188427,2.205609 -3.217042,3.371736 -0.734042,0.745834 -1.315127,1.581179 -1.769875,2.518304 0,0 -4.239174,1.952549 -4.239174,1.952549 v 0 c 0.360038,-1.011288 0.911933,-1.877516 1.673125,-2.644511 1.052643,-1.179179 2.116448,-2.342671 3.255969,-3.438903 1.321707,-1.212324 2.627791,-2.441874 3.912142,-3.691819 1.07904,-1.103664 2.181143,-2.174499 3.384952,-3.142874 2.616674,-1.994194 5.599123,-3.47754 8.574895,-4.85962 2.037217,-0.963767 4.033768,-2.011219 6.075987,-2.964978 1.798719,-0.829827 3.629241,-1.572923 5.491961,-2.247414 1.990548,-0.700879 3.996097,-1.349863 6.018186,-1.953393 2.146477,-0.676157 4.287052,-1.374388 6.464001,-1.948671 2.36469,-0.625712 4.710096,-1.321442 7.046732,-2.044496 2.503255,-0.720871 4.987616,-1.506487 7.515106,-2.140915 2.410579,-0.669689 4.863746,-1.167703 7.280759,-1.813786 2.474667,-0.59983 4.954699,-1.1771815 7.481705,-1.5179646 2.503267,-0.3824579 5.023317,-0.5916414 7.540167,-0.8619897 2.63023,-0.2683346 5.26918,-0.4791911 7.90667,-0.6576156 2.58897,-0.1650484 5.17806,-0.3934912 7.77474,-0.2452311 2.61627,0.089389 5.23306,0.2329328 7.82182,0.6456756 2.55051,0.3768934 5.10224,0.738695 7.58483,1.4635192 2.51769,0.7078632 5.00011,1.5317872 7.40122,2.5753152 2.69531,1.224699 5.30746,2.624098 7.98898,3.878529 2.83391,1.414868 5.66791,2.845852 8.36939,4.50344 2.34763,1.494538 4.56531,3.178412 6.80613,4.826734 2.33031,1.783102 4.71691,3.49335 6.92015,5.437415 2.49847,2.154862 5.06229,4.259276 7.13415,6.84925 1.67406,2.14725 3.2406,4.354619 4.36727,6.84961 1.31799,2.636584 2.38337,5.376368 3.35261,8.159761 1.09902,3.159736 2.08472,6.360252 2.7924,9.633048 0.67112,3.197817 1.29761,6.419088 1.55649,9.680223 0.29883,3.607207 0.43897,7.22808 0.38359,10.847792 0.002,3.584096 0.003,7.168684 -0.0681,10.752203 -0.10039,3.073212 -0.28876,6.139593 -0.60832,9.198599 -0.20784,3.30958 -0.55254,6.60259 -0.96058,9.89324 -0.42377,3.17263 -0.95205,6.32985 -1.77565,9.42659 -0.86489,3.31294 -1.83454,6.5948 -2.85184,9.86428 -0.90728,2.94935 -1.78522,5.91442 -3.131,8.70228 -1.11912,2.4041 -2.29624,4.79063 -3.63319,7.08093 -1.38916,2.0074 -2.95154,3.87998 -4.5349,5.73631 -1.64895,1.91158 -3.17303,3.92944 -4.86137,5.80887 -1.74768,2.05662 -3.59537,4.02797 -5.31776,6.10727 -2.03296,2.21953 -3.99258,4.5468 -6.46059,6.30505 -1.77393,1.32404 -3.51923,2.74748 -5.41881,3.89162 -1.76798,1.06488 -3.55865,2.09174 -5.34737,3.12141 -0.51986,0.29925 -1.05195,0.57673 -1.57792,0.8651 -3.50119,1.84764 -7.08054,3.53274 -10.79113,4.92392 -3.82326,1.46189 -7.75069,2.62015 -11.78824,3.32738 -3.42136,0.60186 -6.87396,0.99457 -10.35127,1.05215 -3.37196,0.10228 -6.73507,0.0632 -10.09137,-0.33212 -3.87914,-0.31819 -7.769893,-0.54811 -11.610084,-1.22292 -3.825057,-0.5374 -7.64813,-1.15044 -11.393302,-2.10956 -3.510463,-0.92103 -6.958584,-2.07819 -10.344952,-3.38273 -3.45219,-1.39777 -6.829761,-2.96021 -10.111155,-4.72551 -3.379711,-1.9038 -6.747309,-3.83954 -9.972574,-5.99812 -3.320005,-2.22998 -6.536354,-4.60174 -9.572371,-7.21005 -3.00999,-2.51432 -5.898986,-5.17991 -8.383159,-8.22737 -2.886279,-3.62104 -5.580041,-7.38142 -8.005266,-11.33008 -2.286473,-3.85992 -4.462928,-7.78769 -6.293518,-11.88806 -1.655294,-3.67471 -3.237095,-7.39184 -4.410503,-11.2533 -1.165753,-3.562 -2.284172,-7.14243 -2.774185,-10.87355 -0.457558,-3.31494 -0.802915,-6.64219 -0.610848,-9.99429 0.07336,-3.355509 0.199939,-6.712497 0.585157,-10.049189 0.365886,-3.261495 0.705885,-6.524559 0.86208,-9.804231 0.220494,-2.820246 0.377663,-5.644782 0.665075,-8.459493 0.286843,-3.063391 0.403774,-6.149862 1.0544,-9.168943 0.552327,-3.142898 1.283693,-6.261256 2.498353,-9.222351 1.283658,-2.90849 3.082339,-5.492403 5.248761,-7.822461 2.153816,-2.344161 4.274635,-4.765593 6.88818,-6.616314 3.062515,-2.04661 6.228535,-3.970509 9.57141,-5.524283 1.456362,-0.600339 2.953129,-1.097081 4.540679,-1.174972 0,0 -3.846304,2.794503 -3.846304,2.794503 z"
       inkscape:connector-curvature="0"
       inkscape:export-xdpi="300"
       inkscape:export-ydpi="300" />
    <ellipse
       style="fill:#003500;fill-opacity:1;stroke:#5f021f;stroke-width:0.66500002;stroke-linecap:butt;stroke-miterlimit:4;stroke-dasharray:2.66000016, 5.32000032000000012;stroke-dashoffset:0;stroke-opacity:1"
       id="path835"
       cx="100.49334"
       cy="92.004272"
       rx="5.3453903"
       ry="5.0781207" />
    <path
       style="fill:none;stroke:#000000;stroke-width:1.065;stroke-linecap:butt;stroke-linejoin:miter;stroke-opacity:1;stroke-miterlimit:4.5;stroke-dasharray:none;marker-end:url(#Arrow1Mend)"
       d="M 67.35192,126.48204 C 84.457169,110.44587 84.457169,110.44587 84.457169,110.44587"
       id="path841"
       inkscape:connector-curvature="0" />
    <path
       style="fill:none;stroke:#000000;stroke-width:0.75231761;stroke-linecap:butt;stroke-linejoin:miter;stroke-miterlimit:4.5;stroke-dasharray:none;stroke-opacity:1;marker-end:url(#Arrow1Mend-3)"
       d="m 81.022636,181.19215 c 6.074911,-15.4749 6.074911,-15.4749 6.074911,-15.4749"
       id="path841-7"
       inkscape:connector-curvature="0" />
    <text
       xml:space="preserve"
       style="font-style:normal;font-weight:normal;font-size:3.52777767px;line-height:1.25;font-family:sans-serif;letter-spacing:0px;word-spacing:0px;fill:#000000;fill-opacity:1;stroke:none;stroke-width:0.26458332"
       x="81.249931"
       y="120.60211"
       id="text1822"><tspan
         sodipodi:role="line"
         id="tspan1820"
         x="81.249931"
         y="120.60211"
         style="stroke-width:0.26458332;font-size:7.05555556px">F<tspan
   style="font-size:65%;baseline-shift:sub"
   id="tspan1824">1</tspan></tspan></text>
    <text
       xml:space="preserve"
       style="font-style:normal;font-weight:normal;font-size:3.52777767px;line-height:1.25;font-family:sans-serif;letter-spacing:0px;word-spacing:0px;fill:#000000;fill-opacity:1;stroke:none;stroke-width:0.26458332"
       x="88.198944"
       y="175.39236"
       id="text1828"><tspan
         sodipodi:role="line"
         id="tspan1826"
         x="88.198944"
         y="175.39236"
         style="stroke-width:0.26458332;font-size:7.05555556px">F<tspan
   style="font-size:65%;baseline-shift:sub"
   id="tspan1830">2</tspan></tspan></text>
  </g>
</svg>
